Lab 4
…
biography$Weight <- as.numeric(biography$Weight) # 2
bioClean = biography %>% separate(Height, c("Ft", "In"))

offensive$Name <- as.factor(offensive$Name) 
offClean <- offensive

# defense
biography

print(defense)

## # A tibble: 502 x 11
##    Name  Opponent_Oppone~ Tackles_Solo Tackles_ASST Tackles_TFL Tackles_Sack
##    <fct> <chr>            <chr>        <chr>        <chr>       <chr>       
##  1 Whit~ UNI              4            4            0           0           
##  2 Whit~ Iowa             4            7            0           0           
##  3 Whit~ ULM              3            5            0           0           
##  4 Whit~ Baylor           4            2            0           0           
##  5 Whit~ TCU              3            2            1.0         0           
##  6 Whit~ West Virginia    1            1            0           0           
##  7 Whit~ Texas Tech       7            1            0           0           
##  8 Whit~ Oklahoma State   3            2            0           0           
##  9 Whit~ Oklahoma         6            1            1.0         0           
## 10 Whit~ Texas            5            5            1.0         1.0         
## # ... with 492 more rows, and 5 more variables: Turnover_FF <chr>,
## #   Turnover_FR <chr>, Turnover_INT <chr>, Pass_QBH <chr>, Pass_PB <chr>

print(offensive)

## # A tibble: 195 x 12
##    Name  Opponent_Oppone~ Rushing_ATT Rushing_YDS Rushing_TD Receiving_REC
##    <fct> <chr>            <chr>       <chr>       <chr>      <chr>        
##  1 Aker~ UNI              0           0           0          1            
##  2 Aker~ Iowa             0           0           0          0            
##  3 Aker~ ULM              1           8           0          0            
##  4 Aker~ Baylor           0           0           0          0            
##  5 Aker~ TCU              0           0           0          1            
##  6 Aker~ West Virginia    0           0           0          0            
##  7 Aker~ Texas Tech       0           0           0          0            
##  8 Aker~ Oklahoma State   0           0           0          4            
##  9 Aker~ Oklahoma         0           0           0          0            
## 10 Aker~ Texas            0           0           0          1            
## # ... with 185 more rows, and 6 more variables: Receiving_YDS <chr>,
## #   Receiving_TD <chr>, `Passing_CMP-ATT` <chr>, Passing_YDS <chr>,
## #   Passing_TD <chr>, Passing_INT <chr>
…
